An R Markdown document converted from “notebook.ipynb”
…
## Rows: 40518 Columns: 4

## ── Column specification ────────────────────────────────────────────────────────────────────────────
## Delimiter: ","
## chr (1): tag
## dbl (3): year, number, year_total
## 
## ℹ Use `spec()` to retrieve the full column specification for this data.
## ℹ Specify the column types or set `show_col_types = FALSE` to quiet this message.

# Inspect the dataset
# .... YOUR CODE FOR TASK 1 ....
by_tag_year

## # A tibble: 40,518 × 4
##     year tag           number year_total
##    <dbl> <chr>          <dbl>      <dbl>
##  1  2008 .htaccess         54      58390
##  2  2008 .net            5910      58390
##  3  2008 .net-2.0         289      58390
##  4  2008 .net-3.5         319      58390
##  5  2008 .net-4.0           6      58390
##  6  2008 .net-assembly      3      58390
##  7  2008 .net-core          1      58390
##  8  2008 2d                42      58390
##  9  2008 32-bit            19      58390
## 10  2008 32bit-64bit        4      58390
## # … with 40,508 more rows
2. Now in fraction format

This data has one observation for each pair of a tag and a year, showing the number of questions asked in that tag in that year and the total number of questions asked in that year. For instance, there were 54 questions asked about the .htaccess tag in 2008, out of a total of 58390 questions in that year.

Rather than just the counts, we’re probably interested in a percentage: the fraction of questions that year that have that tag. So let’s add that to the table.

# Add fraction column
by_tag_year_fraction <- by_tag_year %>%
  mutate(fraction = number / year_total)

# Print the new table
# .... YOUR CODE FOR TASK 2 ....
by_tag_year_fraction

## # A tibble: 40,518 × 5
##     year tag           number year_total  fraction
##    <dbl> <chr>          <dbl>      <dbl>     <dbl>
##  1  2008 .htaccess         54      58390 0.000925 
##  2  2008 .net            5910      58390 0.101    
##  3  2008 .net-2.0         289      58390 0.00495  
##  4  2008 .net-3.5         319      58390 0.00546  
##  5  2008 .net-4.0           6      58390 0.000103 
##  6  2008 .net-assembly      3      58390 0.0000514
##  7  2008 .net-core          1      58390 0.0000171
##  8  2008 2d                42      58390 0.000719 
##  9  2008 32-bit            19      58390 0.000325 
## 10  2008 32bit-64bit        4      58390 0.0000685
## # … with 40,508 more rows
…
Let’s look at tags that have the most questions in history.

# Find total number of questions for each tag
sorted_tags <- by_tag_year %>% 
  group_by(tag) %>% 
  summarize(tag_total = sum(number)) %>% 
  arrange(desc(tag_total))
# .... YOUR CODE FOR TASK 6 ....

# Print the new table
# .... YOUR CODE FOR TASK 6
sorted_tags

## # A tibble: 4,080 × 2
##    tag        tag_total
##    <chr>          <dbl>
##  1 javascript   1632049
##  2 java         1425961
##  3 c#           1217450
##  4 php          1204291
##  5 android      1110261
##  6 python        970768
##  7 jquery        915159
##  8 html          755341
##  9 c++           574263
## 10 ios           566075
## # … with 4,070 more rows
…
