An R Markdown document converted from “notebook.ipynb”
…
# Finding 30 artists with the most songs in the corpus
bb_30_artists <- bb %>% 
  select(artist, title) %>% 
  unique() %>% 
  count(artist) %>% 
  arrange(desc(n))

# Displaying 30 artists with the most songs in the corpus
#.... YOUR CODE FOR TASK 6 ....
head(bb_30_artists, n = 30)

## # A tibble: 30 × 2
##    artist            n
##    <chr>         <int>
##  1 Elvis Presley    13
##  2 Brenda Lee        9
##  3 Dion              8
##  4 Bob Seger         7
##  5 James Brown       7
##  6 Kenny Rogers      7
##  7 The Beatles       7
##  8 Chicago           6
##  9 Dr. Hook          6
## 10 Eric Clapton      6
## # … with 20 more rows
…
tags <- tibble(
  artist = c('Abba', 'Billy Joel', 'Elton John', 'Stevie Wonder', 'The Rolling Stones', 'The Beatles', 'Eric Clapton'),
  instrument = c('piano', 'piano', 'piano', 'piano', 'guitar', 'guitar', 'guitar'))

# Creating a new dataframe bb_tagged that includes a new column instrument from tags
bb_tagged <- bb %>%
  inner_join(tags, by = c("artist" = "artist"))
    # .... YOUR CODE FOR TASK 7 ....
    
# Displaying the new data frame
# .... YOUR CODE FOR TASK 7 ....
bb_tagged

## # A tibble: 1,101 × 10
##     year chord root_integer root_roman quality title_compressed artist_compress…
##    <dbl> <chr> <chr>        <chr>      <chr>   <chr>            <chr>           
##  1  1984 C:maj 0            I          maj     aninnocentman    billyjoel       
##  2  1984 D:min 2            II         min     aninnocentman    billyjoel       
##  3  1984 F:maj 5            IV         maj     aninnocentman    billyjoel       
##  4  1984 G:maj 7            V          maj     aninnocentman    billyjoel       
##  5  1984 C:maj 0            I          maj     aninnocentman    billyjoel       
##  6  1984 D:min 2            II         min     aninnocentman    billyjoel       
##  7  1984 F:maj 5            IV         maj     aninnocentman    billyjoel       
##  8  1984 G:maj 7            V          maj     aninnocentman    billyjoel       
##  9  1984 C:maj 0            I          maj     aninnocentman    billyjoel       
## 10  1984 G:mi… 7            V          min7    aninnocentman    billyjoel       
## # … with 1,091 more rows, and 3 more variables: title <chr>, artist <chr>,
## #   instrument <chr>
…
