An R Markdown document converted from “notebook.ipynb”
…
We all know that “nothing good happens after 2am.” Thus, there are
inevitably some times of the day when breath alcohol tests, especially
in a college town like Ames, are most and least common. Which hours of
the day have the most and least breathalyzer tests?

# Count by hour and arrange by descending frequency
( hourly <- ba_data %>% 
  count(hour, sort = TRUE) )

## # A tibble: 24 × 2
##     hour     n
##    <dbl> <int>
##  1     2   417
##  2     3   364
##  3     1   219
##  4     4   124
##  5     0    98
##  6    23    51
##  7     5    48
##  8    20    31
##  9    22    29
## 10    21    26
## # … with 14 more rows
…
# Filter the data
duis <- ba_data %>% 
  filter(Res1 > 0.08 | Res2 > 0.08)

# Proportion of tests that would have resulted in a DUI
# .... YOUR CODE FOR TASK 6 ....
p_dui <- nrow(duis)/nrow(ba_data)

duis

## # A tibble: 1,159 × 8
##     year month   day  hour location gender  Res1  Res2
##    <dbl> <dbl> <dbl> <dbl> <chr>    <chr>  <dbl> <dbl>
##  1  2017    12    14     3 ISU PD   F      0.121 0.12 
##  2  2017    12     9     2 ISU PD   M      0.085 0.084
##  3  2017    12     9     1 Ames PD  M      0.16  0.161
##  4  2017    12     7     3 Ames PD  M      0.131 0.131
##  5  2017    12     3     1 Ames PD  M      0.091 0.09 
##  6  2017    12     3     0 Ames PD  M      0.095 0.095
##  7  2017    12     2     1 Ames PD  M      0.155 0.155
##  8  2017    11    29     3 ISU PD   F      0.171 0.171
##  9  2017    11    17    18 ISU PD   M      0.176 0.176
## 10  2017    11    11     2 ISU PD   M      0.094 0.093
## # … with 1,149 more rows
…
