An R Markdown document converted from “notebook.ipynb”
…
# Print the dataset
# .... YOUR CODE FOR TASK 2 ....
wwc_raw

## # A tibble: 55 × 13
##    Round   Wk    Day   Date       Time  Home  Score PKS   Away  Attendance Venue
##    <fct>   <chr> <chr> <date>     <tim> <chr> <chr> <chr> <chr>      <dbl> <fct>
##  1 Group … 1     Fri   2019-06-07 21:00 Fran… 4 - 0 <NA>  Kore…      45261 Parc…
##  2 Group … 1     Sat   2019-06-08 15:00 Germ… 1 - 0 <NA>  Chin…      15283 Roaz…
##  3 Group … 1     Sat   2019-06-08 18:00 Spain 3 - 1 <NA>  Sout…      12044 Stad…
##  4 Group … 1     Sat   2019-06-08 21:00 Norw… 3 - 0 <NA>  Nige…      11058 Stad…
##  5 Group … 1     Sun   2019-06-09 13:00 Aust… 1 - 2 <NA>  Italy      15380 Stad…
##  6 Group … 1     Sun   NA         15:30 Braz… 3 - 0 <NA>  Jama…      17668 Stad…
##  7 Group … 1     Sun   2019-06-09 18:00 Engl… 2 - 1 <NA>  Scot…      13188 Stad…
##  8 Group … 1     Mon   2019-06-10 18:00 Arge… 0 - 0 <NA>  Japan      25055 Parc…
##  9 Group … 1     Mon   2019-06-10 21:00 Cana… 1 - 0 <NA>  Came…      10710 Stad…
## 10 Group … 1     Tue   2019-06-11 15:00 New … 0 - 1 <NA>  Neth…      10654 Stad…
## # … with 45 more rows, and 2 more variables: Referee <chr>, Notes <chr>
…
# Separate columns and replace NA (you've got this!)
wwc_3  <- wwc_2  %>% 
  # .... YOUR CODE FOR TASK 5 ....
 separate(score, c("home_score", "away_score"),sep = "-", convert = TRUE) %>% 
 separate(pks, c("home_pks", "away_pks"), sep = "-", convert = TRUE) %>% 
 replace_na(list("home_pks" = 0, "away_pks" = 0)) 
# Print the data
# .... YOUR CODE FOR TASK 5 ....
wwc_3

## # A tibble: 55 × 15
##    round       wk    day   date       time  home  home_score away_score home_pks
##    <fct>       <chr> <chr> <date>     <tim> <chr>      <dbl>      <int>    <dbl>
##  1 Group stage 1     Fri   2019-06-07 21:00 Fran…          4          0        0
##  2 Group stage 1     Sat   2019-06-08 15:00 Germ…          1          0        0
##  3 Group stage 1     Sat   2019-06-08 18:00 Spain          3          1        0
##  4 Group stage 1     Sat   2019-06-08 21:00 Norw…          3          0        0
##  5 Group stage 1     Sun   2019-06-09 13:00 Aust…          1          2        0
##  6 Group stage 1     Sun   2019-06-09 15:30 Braz…          3          0        0
##  7 Group stage 1     Sun   2019-06-09 18:00 Engl…          2          1        0
##  8 Group stage 1     Mon   2019-06-10 18:00 Arge…          0          0        0
##  9 Group stage 1     Mon   2019-06-10 21:00 Cana…          1          0        0
## 10 Group stage 1     Tue   2019-06-11 15:00 New …          0          1        0
## # … with 45 more rows, and 6 more variables: away_pks <int>, away <chr>,
## #   attendance <dbl>, venue <fct>, referee <chr>, notes <chr>
…
